Lab04/results/Q7 - dma_run/waves.vcd
$date
    Nov 30, 2021  19:34:13
$end
$version
    TOOL:	ncsim(64)	15.20-s085
$end
$timescale
    1 ns
$end

$scope module top $end
$var reg       1 !    clk  $end
$var reg       1 "    reset  $end
$var reg       1 #    start  $end

$scope module SP $end
$var wire      1 $    clk  $end
$var wire      1 %    reset  $end
$var wire      1 &    start  $end
$var wire     16 '    sram_ADDR [15:0] $end
$var wire     32 (    sram_DI [31:0] $end
$var wire      1 )    sram_EN  $end
$var wire      1 *    sram_WE  $end
$var wire     32 +    sram_DO [31:0] $end
$var wire      5 ,    opcode [4:0] $end
$var wire     32 -    alu0 [31:0] $end
$var wire     32 .    alu1 [31:0] $end
$var wire     32 /    aluout_wire [31:0] $end

$scope module SRAM $end
$var wire      1 $    clk  $end
$var wire     16 '    addr [15:0] $end
$var wire     32 (    di [31:0] $end
$var wire      1 )    en  $end
$var wire      1 *    we  $end
$var reg      32 0    do [31:0] $end
$upscope $end


$scope module CTL $end
$var wire      1 $    clk  $end
$var wire      1 %    reset  $end
$var wire      1 &    start  $end
$var wire     32 +    sram_DO [31:0] $end
$var wire     32 /    aluout_wire [31:0] $end
$var reg      16 1    sram_ADDR [15:0] $end
$var reg      32 2    sram_DI [31:0] $end
$var reg       1 3    sram_EN  $end
$var reg       1 4    sram_WE  $end
$var reg      32 5    alu0 [31:0] $end
$var reg      32 6    alu1 [31:0] $end
$var reg       5 7    opcode [4:0] $end
$var reg      32 8    r2 [31:0] $end
$var reg      32 9    r3 [31:0] $end
$var reg      32 :    r4 [31:0] $end
$var reg      32 ;    r5 [31:0] $end
$var reg      32 <    r6 [31:0] $end
$var reg      32 =    r7 [31:0] $end
$var reg      16 >    pc [15:0] $end
$var reg      32 ?    inst [31:0] $end
$var reg       3 @    dst [2:0] $end
$var reg       3 A    src0 [2:0] $end
$var reg       3 B    src1 [2:0] $end
$var reg      32 C    aluout [31:0] $end
$var reg      32 D    immediate [31:0] $end
$var reg      32 E    cycle_counter [31:0] $end
$var reg       3 F    ctl_state [2:0] $end
$var reg       1 G    dma_work  $end
$var reg       1 H    dma_wait  $end
$var reg       1 I    dma_status  $end
$var reg       3 J    dma_state [2:0] $end
$var reg      32 K    dma_src [31:0] $end
$var reg      32 L    dma_dest [31:0] $end
$var reg      32 M    dma_size [31:0] $end
$var reg      32 N    dma_data [31:0] $end
$var reg      32 O    dma_counter [31:0] $end
$var integer  32 P    verilog_trace_fp  $end
$var integer  32 Q    rc  $end
$upscope $end


$scope module ALU $end
$var wire      5 ,    opcode [4:0] $end
$var wire     32 -    alu0 [31:0] $end
$var wire     32 .    alu1 [31:0] $end
$var reg      32 R    aluout [31:0] $end
$upscope $end

$upscope $end

$upscope $end

$enddefinitions $end
$dumpvars
1!
1"
0#
1$
1%
0&
bx '
bx (
0)
0*
bx +
b0 ,
b0 -
b0 .
b0 /
bx 0
bx 1
bx 2
03
04
b0 5
b0 6
b0 7
b0 8
b0 9
b0 :
b0 ;
b0 <
b0 =
b0 >
b0 ?
b0 @
b0 A
b0 B
b0 C
b0 D
b0 E
b0 F
0G
0H
0I
b0 J
b0 K
b0 L
b0 M
b0 N
b0 O
b10000000000000000000000000000011 P
bx Q
b0 R
$end
#5
0!
0$
#10
1!
1$
#15
0!
0$
#20
1!
1$
#25
0!
0$
#30
1!
1$
#35
0!
0$
#40
1!
1$
#45
0!
0$
#50
1!
1$
#55
0!
0$
#60
1!
1$
#65
0!
0$
#70
1!
1$
#75
0!
0$
#80
1!
1$
#85
0!
0$
#90
1!
1$
#95
0!
0$
#100
0"
1#
1!
1$
1&
0%
b1 E
b1 F
b0 1
13
1)
b0 '
#105
0!
0$
#110
1!
1$
b110000010000000001100100 0
b10 E
b10 F
03
0)
b110000010000000001100100 +
#115
0!
0$
#120
1!
1$
b11 E
b110000010000000001100100 ?
b11 F
#125
0!
0$
#130
1!
1$
b100 E
b1100100 D
b1 B
b11 @
b100 F
#135
0!
0$
#140
1!
1$
b101 E
b1100100 6
b101 F
b1100100 .
b1100100 R
b1100100 /
#145
0!
0$
#150
1!
1$
b110 E
1H
b1100100 C
b110 F
#155
0!
0$
#160
1!
1$
b111 E
b1 >
b1100100 9
b1 F
b1 1
13
1)
b1 '
#165
0!
0$
#170
1!
1$
b100000010000000000000000 0
b1000 E
0H
b10 F
03
0)
b100000010000000000000000 +
#175
0!
0$
#180
1!
1$
b1001 E
b100000010000000000000000 ?
b11 F
#185
0!
0$
#190
1!
1$
b1010 E
b0 D
b10 @
b100 F
#195
0!
0$
#200
1!
1$
b1011 E
b0 6
b101 F
b0 .
b0 R
b0 /
#205
0!
0$
#210
1!
1$
b1100 E
1H
b0 C
b110 F
#215
0!
0$
#220
1!
1$
b1101 E
b10 >
b1 F
b10 1
13
1)
b10 '
#225
0!
0$
#230
1!
1$
b1100000010000000000000010 0
b1110 E
0H
b10 F
03
0)
b1100000010000000000000010 +
#235
0!
0$
#240
1!
1$
b1111 E
b1100000010000000000000010 ?
b11 F
#245
0!
0$
#250
1!
1$
b10000 E
b10 D
b110 @
b100 F
#255
0!
0$
#260
1!
1$
b10001 E
b10 6
b101 F
b10 .
b10 R
b10 /
#265
0!
0$
#270
1!
1$
b10010 E
1H
b10 C
b110 F
#275
0!
0$
#280
1!
1$
b10011 E
b11 >
b10 <
b1 F
b11 1
13
1)
b11 '
#285
0!
0$
#290
1!
1$
b10001000000110000000000000000 0
b10100 E
0H
b10 F
03
0)
b10001000000110000000000000000 +
#295
0!
0$
#300
1!
1$
b10101 E
b10001000000110000000000000000 ?
b11 F
#305
0!
0$
#310
1!
1$
b10110 E
b0 D
b11 B
b100 @
b1000 7
1H
b100 F
b1000 ,
b0 R
b0 /
#315
0!
0$
#320
1!
1$
b10111 E
b1100100 6
b101 F
b1100100 1
13
1)
b1100100 '
b1100100 .
#325
0!
0$
#330
1!
1$
b11001000 0
b11000 E
b110 F
03
0)
b11001000 +
#335
0!
0$
#340
1!
1$
b11001 E
b100 >
b11001000 :
b1 F
b100 1
13
1)
b100 '
#345
0!
0$
#350
1!
1$
b1010000010000001111101000 0
b11010 E
0H
b10 F
03
0)
b1010000010000001111101000 +
#355
0!
0$
#360
1!
1$
b11011 E
b1010000010000001111101000 ?
b11 F
#365
0!
0$
#370
1!
1$
b11100 E
b1111101000 D
b1 B
b101 @
b0 7
b100 F
b0 ,
b1100100 R
b1100100 /
#375
0!
0$
#380
1!
1$
b11101 E
b1111101000 6
b101 F
b1111101000 .
b1111101000 R
b1111101000 /
#385
0!
0$
#390
1!
1$
b11110 E
1H
b1111101000 C
b110 F
#395
0!
0$
#400
1!
1$
b11111 E
b101 >
b1111101000 ;
b1 F
b101 1
13
1)
b101 '
#405
0!
0$
#410
1!
1$
b10100001011000000000000001010 0
b100000 E
0H
b10 F
03
0)
b10100001011000000000000001010 +
#415
0!
0$
#420
1!
1$
b100001 E
b10100001011000000000000001010 ?
b11 F
#425
0!
0$
#430
1!
1$
b100010 E
b1010 D
b100 B
b101 A
b0 @
b1010 7
b100 F
b1010 ,
b0 R
b0 /
#435
0!
0$
#440
1!
1$
b1010 M
1I
1G
b100011 E
b1111101000 K
b11001000 L
b1111101000 5
b11001000 6
b101 F
b1 J
b11001000 .
b1111101000 -
#445
0!
0$
#450
1!
1$
b100100 E
1H
b0 C
b110 F
#455
0!
0$
#460
1!
1$
b100101 E
b110 >
b1 F
b110 1
13
1)
b110 '
#465
0!
0$
#470
1!
1$
b10111100000000000000000000000 0
b100110 E
0H
b10 F
b10 J
b1111101000 1
b1111101000 '
b10111100000000000000000000000 +
#475
0!
0$
#480
1!
1$
b10 0
b100111 E
b10111100000000000000000000000 ?
b11 F
14
b11001000 1
b11 J
b11001000 '
1*
b10 +
b10 2
b10 (
#485
0!
0$
#490
1!
1$
b101000 E
b0 D
b0 B
b0 A
b110 @
b1011 7
b100 F
b10 N
b1111101001 1
04
b10 J
0*
b1111101001 '
b1011 ,
b1111101001 K
b11001001 L
b1 O
#495
0!
0$
#500
1!
1$
b11 0
b101001 E
b0 5
b0 6
b101 F
14
b11001001 1
b11 J
b11001001 '
1*
b0 .
b0 -
b11 +
b11 2
b11 (
#505
0!
0$
#510
1!
1$
b101010 E
1H
b110 F
b11 N
04
03
b1 J
0)
0*
b1111101010 K
b11001010 L
b10 O
#515
0!
0$
#520
1!
1$
b101011 E
b111 >
b1 <
b1 F
b111 1
13
1)
b111 '
#525
0!
0$
#530
1!
1$
b10010001100110000000000000000 0
b101100 E
0H
b10 F
b10 J
b1111101010 1
b1111101010 '
b10010001100110000000000000000 +
#535
0!
0$
#540
1!
1$
b100 0
b101101 E
b10010001100110000000000000000 ?
b11 F
14
b11001010 1
b11 J
b11001010 '
1*
b100 +
b100 2
b100 (
#545
0!
0$
#550
1!
1$
b101110 E
b11 B
b110 A
b0 @
b1001 7
b100 F
b100 N
b1111101011 1
04
b10 J
0*
b1111101011 '
b1001 ,
b1111101011 K
b11001011 L
b11 O
#555
0!
0$
#560
1!
1$
1H
b101 0
b101111 E
b1 5
b1100100 6
b101 F
14
b11001011 1
b11 J
b11001011 '
1*
b1100100 .
b1 -
b101 +
b101 2
b101 (
#565
0!
0$
#570
1!
1$
b110000 E
b110 F
b1100100 1
b1 2
b101 N
04
03
b1 J
0)
0*
b1 (
b1100100 '
b1111101100 K
b11001100 L
b100 O
#575
0!
0$
#580
1!
1$
b110001 E
b1000 >
b1 F
b1000 1
13
1)
b1000 '
#585
0!
0$
#590
1!
1$
b100110000101100000000000000110 0
b110010 E
0H
b10 F
b10 J
b1111101100 1
b1111101100 '
b100110000101100000000000000110 +
#595
0!
0$
#600
1!
1$
b110 0
b110011 E
b100110000101100000000000000110 ?
b11 F
14
b11001100 1
b11 J
b11001100 '
1*
b110 +
b110 2
b110 (
#605
0!
0$
#610
1!
1$
b110100 E
b110 D
b110 B
b10 A
b10011 7
b100 F
b110 N
b1111101101 1
04
b10 J
0*
b1111101101 '
b10011 ,
b1 R
b1 /
b1111101101 K
b11001101 L
b101 O
#615
0!
0$
#620
1!
1$
b111 0
b110101 E
b0 5
b1 6
b101 F
14
b11001101 1
b11 J
b11001101 '
1*
b1 .
b0 -
b111 +
b111 2
b111 (
#625
0!
0$
#630
1!
1$
b110110 E
1H
b1 C
b110 F
b111 N
04
03
b1 J
0)
0*
b1111101110 K
b11001110 L
b110 O
#635
0!
0$
#640
1!
1$
b110111 E
b1001 >
b1000 =
b110 >
b1 F
b110 1
13
1)
b110 '
#645
0!
0$
#650
1!
1$
b10111100000000000000000000000 0
b111000 E
0H
b10 F
b10 J
b1111101110 1
b1111101110 '
b10111100000000000000000000000 +
#655
0!
0$
#660
1!
1$
b1000 0
b111001 E
b10111100000000000000000000000 ?
b11 F
14
b11001110 1
b11 J
b11001110 '
1*
b1000 +
b1000 2
b1000 (
#665
0!
0$
#670
1!
1$
b111010 E
b0 D
b0 B
b0 A
b110 @
b1011 7
b100 F
b1000 N
b1111101111 1
04
b10 J
0*
b1111101111 '
b1011 ,
b0 R
b0 /
b1111101111 K
b11001111 L
b111 O
#675
0!
0$
#680
1!
1$
b0 0
b111011 E
b0 6
b101 F
14
b11001111 1
b11 J
b11001111 '
1*
b0 .
b0 +
b0 2
b0 (
#685
0!
0$
#690
1!
1$
b111100 E
1H
b0 C
b110 F
b0 N
04
03
b1 J
0)
0*
b1111110000 K
b11010000 L
b1000 O
#695
0!
0$
#700
1!
1$
b111101 E
b111 >
b1 F
b111 1
13
1)
b111 '
#705
0!
0$
#710
1!
1$
b10010001100110000000000000000 0
b111110 E
0H
b10 F
b10 J
b1111110000 1
b1111110000 '
b10010001100110000000000000000 +
#715
0!
0$
#720
1!
1$
b0 0
b111111 E
b10010001100110000000000000000 ?
b11 F
14
b11010000 1
b11 J
b11010000 '
1*
b0 +
#725
0!
0$
#730
1!
1$
b1000000 E
b11 B
b110 A
b0 @
b1001 7
b100 F
b1111110001 1
04
b10 J
0*
b1111110001 '
b1001 ,
b1111110001 K
b11010001 L
b1001 O
#735
0!
0$
#740
1!
1$
1H
b1000001 E
b1 5
b1100100 6
b101 F
14
b11010001 1
b11 J
b11010001 '
1*
b1100100 .
b1 -
#745
0!
0$
#750
1!
1$
b1000010 E
b110 F
b1100100 1
b1 2
b0 O
b0 M
0I
0G
b0 J
b1 (
b1100100 '
#755
0!
0$
#760
1!
1$
b1000011 E
b1000 >
b1 F
b1000 1
04
0*
b1000 '
#765
0!
0$
#770
1!
1$
b100110000101100000000000000110 0
b1000100 E
0H
b10 F
03
0)
b100110000101100000000000000110 +
#775
0!
0$
#780
1!
1$
b1000101 E
b100110000101100000000000000110 ?
b11 F
#785
0!
0$
#790
1!
1$
b1000110 E
b110 D
b110 B
b10 A
b10011 7
b100 F
b10011 ,
b1 R
b1 /
#795
0!
0$
#800
1!
1$
b1000111 E
b0 5
b1 6
b101 F
b1 .
b0 -
#805
0!
0$
#810
1!
1$
b1001000 E
1H
b1 C
b110 F
#815
0!
0$
#820
1!
1$
b1001001 E
b1001 >
b110 >
b1 F
b110 1
13
1)
b110 '
#825
0!
0$
#830
1!
1$
b10111100000000000000000000000 0
b1001010 E
0H
b10 F
03
0)
b10111100000000000000000000000 +
#835
0!
0$
#840
1!
1$
b1001011 E
b10111100000000000000000000000 ?
b11 F
#845
0!
0$
#850
1!
1$
b1001100 E
b0 D
b0 B
b0 A
b110 @
b1011 7
b100 F
b1011 ,
b0 R
b0 /
#855
0!
0$
#860
1!
1$
b1001101 E
b0 6
b101 F
b0 .
#865
0!
0$
#870
1!
1$
b1001110 E
1H
b0 C
b110 F
#875
0!
0$
#880
1!
1$
b1001111 E
b111 >
b0 <
b1 F
b111 1
13
1)
b111 '
#885
0!
0$
#890
1!
1$
b10010001100110000000000000000 0
b1010000 E
0H
b10 F
03
0)
b10010001100110000000000000000 +
#895
0!
0$
#900
1!
1$
b1010001 E
b10010001100110000000000000000 ?
b11 F
#905
0!
0$
#910
1!
1$
b1010010 E
b11 B
b110 A
b0 @
b1001 7
b100 F
b1001 ,
#915
0!
0$
#920
1!
1$
1H
b1010011 E
b1100100 6
b101 F
b1100100 .
#925
0!
0$
#930
1!
1$
b1010100 E
b110 F
b1100100 1
b0 2
13
14
1*
1)
b0 (
b1100100 '
#935
0!
0$
#940
1!
1$
b1010101 E
b1000 >
b1 F
b1000 1
04
0*
b1000 '
#945
0!
0$
#950
1!
1$
b100110000101100000000000000110 0
b1010110 E
0H
b10 F
03
0)
b100110000101100000000000000110 +
#955
0!
0$
#960
1!
1$
b1010111 E
b100110000101100000000000000110 ?
b11 F
#965
0!
0$
#970
1!
1$
b1011000 E
b110 D
b110 B
b10 A
b10011 7
b100 F
b10011 ,
b1 R
b1 /
#975
0!
0$
#980
1!
1$
b1011001 E
b0 6
b101 F
b0 .
b0 R
b0 /
#985
0!
0$
#990
1!
1$
b1011010 E
1H
b110 F
#995
0!
0$
#1000
1!
1$
b1011011 E
b1001 >
b1 F
b1001 1
13
1)
b1001 '
#1005
0!
0$
#1010
1!
1$
b110000000000000000000000000000 0
b1011100 E
0H
b10 F
03
0)
b110000000000000000000000000000 +
#1015
0!
0$
#1020
1!
1$
b1011101 E
b110000000000000000000000000000 ?
b11 F
#1025
0!
0$
#1030
1!
1$
b1011110 E
b0 D
b0 B
b0 A
b11000 7
b100 F
b11000 ,
#1035
0!
0$
#1040
1!
1$
b1011111 E
b101 F
#1045
0!
0$
#1050
1!
1$
b1100000 E
1H
b110 F
