Lab04/with_dma/example_run/waves.vcd
$date
    Nov 23, 2021  14:39:10
$end
$version
    TOOL:	ncsim(64)	15.20-s085
$end
$timescale
    1 ns
$end

$scope module top $end
$var reg       1 !    clk  $end
$var reg       1 "    reset  $end
$var reg       1 #    start  $end

$scope module SP $end
$var wire      1 $    clk  $end
$var wire      1 %    reset  $end
$var wire      1 &    start  $end
$var wire     16 '    sram_ADDR [15:0] $end
$var wire     32 (    sram_DI [31:0] $end
$var wire      1 )    sram_EN  $end
$var wire      1 *    sram_WE  $end
$var wire     32 +    sram_DO [31:0] $end
$var wire      5 ,    opcode [4:0] $end
$var wire     32 -    alu0 [31:0] $end
$var wire     32 .    alu1 [31:0] $end
$var wire     32 /    aluout_wire [31:0] $end

$scope module SRAM $end
$var wire      1 $    clk  $end
$var wire     16 '    addr [15:0] $end
$var wire     32 (    di [31:0] $end
$var wire      1 )    en  $end
$var wire      1 *    we  $end
$var reg      32 0    do [31:0] $end
$upscope $end


$scope module CTL $end
$var wire      1 $    clk  $end
$var wire      1 %    reset  $end
$var wire      1 &    start  $end
$var wire     32 +    sram_DO [31:0] $end
$var wire     32 /    aluout_wire [31:0] $end
$var reg      16 1    sram_ADDR [15:0] $end
$var reg      32 2    sram_DI [31:0] $end
$var reg       1 3    sram_EN  $end
$var reg       1 4    sram_WE  $end
$var reg      32 5    alu0 [31:0] $end
$var reg      32 6    alu1 [31:0] $end
$var reg       5 7    opcode [4:0] $end
$var reg      32 8    r2 [31:0] $end
$var reg      32 9    r3 [31:0] $end
$var reg      32 :    r4 [31:0] $end
$var reg      32 ;    r5 [31:0] $end
$var reg      32 <    r6 [31:0] $end
$var reg      32 =    r7 [31:0] $end
$var reg      16 >    pc [15:0] $end
$var reg      32 ?    inst [31:0] $end
$var reg       3 @    dst [2:0] $end
$var reg       3 A    src0 [2:0] $end
$var reg       3 B    src1 [2:0] $end
$var reg      32 C    aluout [31:0] $end
$var reg      32 D    immediate [31:0] $end
$var reg      32 E    cycle_counter [31:0] $end
$var reg       3 F    ctl_state [2:0] $end
$var reg       3 G    dma_state [2:0] $end
$var reg       2 H    dma_wr [1:0] $end
$var reg      32 I    dma_start [31:0] $end
$var reg      32 J    dma_end [31:0] $end
$var reg      32 K    dma_busy [31:0] $end
$var reg      32 L    dma_size [31:0] $end
$var reg      32 M    dma_data [31:0] $end
$var reg      32 N    dma_counter [31:0] $end
$var integer  32 O    verilog_trace_fp  $end
$var integer  32 P    rc  $end
$upscope $end


$scope module ALU $end
$var wire      5 ,    opcode [4:0] $end
$var wire     32 -    alu0 [31:0] $end
$var wire     32 .    alu1 [31:0] $end
$var reg      32 Q    aluout [31:0] $end
$upscope $end

$upscope $end

$upscope $end

$enddefinitions $end
$dumpvars
1!
1"
0#
1$
1%
0&
b0 '
b0 (
0)
0*
bx +
b0 ,
b0 -
b0 .
b0 /
bx 0
b0 1
b0 2
03
04
b0 5
b0 6
b0 7
b0 8
b0 9
b0 :
b0 ;
b0 <
b0 =
b0 >
b0 ?
b0 @
b0 A
b0 B
b0 C
b0 D
b0 E
b0 F
b0 G
b0 H
b0 I
b0 J
b0 K
b0 L
b0 M
b0 N
b10000000000000000000000000000011 O
bx P
b0 Q
$end
#5
0!
0$
#10
1!
1$
#15
0!
0$
#20
1!
1$
#25
0!
0$
#30
1!
1$
#35
0!
0$
#40
1!
1$
#45
0!
0$
#50
1!
1$
#55
0!
0$
#60
1!
1$
#65
0!
0$
#70
1!
1$
#75
0!
0$
#80
1!
1$
#85
0!
0$
#90
1!
1$
#95
0!
0$
#100
0"
1#
1!
1$
1&
0%
b1 E
b1 F
13
1)
#105
0!
0$
#110
1!
1$
b100010000000000000001111 0
b10 E
b10 F
03
0)
b100010000000000000001111 +
#115
0!
0$
#120
1!
1$
b11 E
b100010000000000000001111 ?
b11 F
#125
0!
0$
#130
1!
1$
b100 E
b1111 D
b1 A
b10 @
b100 F
#135
0!
0$
#140
1!
1$
b101 E
b1111 5
b101 F
b1111 -
b1111 Q
b1111 /
#145
0!
0$
#150
1!
1$
b110 E
b1111 C
b110 F
#155
0!
0$
#160
1!
1$
b111 E
b1 >
b1111 8
b1 F
b1 1
13
1)
b1 '
#165
0!
0$
#170
1!
1$
b110010000000000000000001 0
b1000 E
b10 F
b0 1
03
0)
b0 '
b110010000000000000000001 +
#175
0!
0$
#180
1!
1$
b1001 E
b110010000000000000000001 ?
b11 F
#185
0!
0$
#190
1!
1$
b1010 E
b1 D
b11 @
b100 F
#195
0!
0$
#200
1!
1$
b1011 E
b1 5
b101 F
b1 -
b1 Q
b1 /
#205
0!
0$
#210
1!
1$
b1100 E
b1 C
b110 F
#215
0!
0$
#220
1!
1$
b1101 E
b10 >
b1 9
b1 F
b10 1
13
1)
b10 '
#225
0!
0$
#230
1!
1$
b1000010000000000000001000 0
b1110 E
b10 F
b0 1
03
0)
b0 '
b1000010000000000000001000 +
#235
0!
0$
#240
1!
1$
b1111 E
b1000010000000000000001000 ?
b11 F
#245
0!
0$
#250
1!
1$
b10000 E
b1000 D
b100 @
b100 F
#255
0!
0$
#260
1!
1$
b10001 E
b1000 5
b101 F
b1000 -
b1000 Q
b1000 /
#265
0!
0$
#270
1!
1$
b10010 E
b1000 C
b110 F
#275
0!
0$
#280
1!
1$
b10011 E
b11 >
b1000 :
b1 F
b11 1
13
1)
b11 '
#285
0!
0$
#290
1!
1$
b100100000111000000000000001011 0
b10100 E
b10 F
b0 1
03
0)
b0 '
b100100000111000000000000001011 +
#295
0!
0$
#300
1!
1$
b10101 E
b100100000111000000000000001011 ?
b11 F
#305
0!
0$
#310
1!
1$
b10110 E
b1011 D
b100 B
b11 A
b0 @
b10010 7
b100 F
b10010 ,
b0 Q
b0 /
#315
0!
0$
#320
1!
1$
b10111 E
b1 5
b1000 6
b101 F
b1000 .
b1 -
#325
0!
0$
#330
1!
1$
b11000 E
b0 C
b110 F
#335
0!
0$
#340
1!
1$
b11001 E
b100 >
b1 F
b100 1
13
1)
b100 '
#345
0!
0$
#350
1!
1$
b10001010000100000000000000000 0
b11010 E
b10 F
b0 1
03
0)
b0 '
b10001010000100000000000000000 +
#355
0!
0$
#360
1!
1$
b11011 E
b10001010000100000000000000000 ?
b11 F
#365
0!
0$
#370
1!
1$
b11100 E
b0 D
b10 B
b0 A
b101 @
b1000 7
b100 F
b1000 ,
#375
0!
0$
#380
1!
1$
b11101 E
b0 5
b1111 6
b101 F
b1111 1
13
1)
b1111 '
b1111 .
b0 -
#385
0!
0$
#390
1!
1$
b0 0
b11110 E
b110 F
b0 +
#395
0!
0$
#400
1!
1$
b11111 E
b101 >
b1 F
b101 1
b101 '
#405
0!
0$
#410
1!
1$
b100100010000000000000001 0
b100000 E
b10 F
b0 1
03
0)
b0 '
b100100010000000000000001 +
#415
0!
0$
#420
1!
1$
b100001 E
b100100010000000000000001 ?
b11 F
#425
0!
0$
#430
1!
1$
b100010 E
b1 D
b1 B
b10 A
b10 @
b0 7
b100 F
b0 ,
b1111 Q
b1111 /
#435
0!
0$
#440
1!
1$
b100011 E
b1111 5
b1 6
b101 F
b1 .
b1111 -
b10000 Q
b10000 /
#445
0!
0$
#450
1!
1$
b100100 E
b10000 C
b110 F
#455
0!
0$
#460
1!
1$
b100101 E
b110 >
b10000 8
b1 F
b110 1
13
1)
b110 '
#465
0!
0$
#470
1!
1$
b10001100000100000000000000000 0
b100110 E
b10 F
b0 1
03
0)
b0 '
b10001100000100000000000000000 +
#475
0!
0$
#480
1!
1$
b100111 E
b10001100000100000000000000000 ?
b11 F
#485
0!
0$
#490
1!
1$
b101000 E
b0 D
b10 B
b0 A
b110 @
b1000 7
b100 F
b1000 ,
b0 Q
b0 /
#495
0!
0$
#500
1!
1$
b101001 E
b0 5
b10000 6
b101 F
b10000 1
13
1)
b10000 '
b10000 .
b0 -
#505
0!
0$
#510
1!
1$
b1 0
b101010 E
b110 F
b1 +
#515
0!
0$
#520
1!
1$
b101011 E
b111 >
b1 <
b1 F
b111 1
b111 '
#525
0!
0$
#530
1!
1$
b1101101010000000000000000 0
b101100 E
b10 F
b0 1
03
0)
b0 '
b1101101010000000000000000 +
#535
0!
0$
#540
1!
1$
b101101 E
b1101101010000000000000000 ?
b11 F
#545
0!
0$
#550
1!
1$
b101110 E
b101 B
b110 A
b0 7
b100 F
b0 ,
b10000 Q
b10000 /
#555
0!
0$
#560
1!
1$
b101111 E
b1 5
b0 6
b101 F
b0 .
b1 -
b1 Q
b1 /
#565
0!
0$
#570
1!
1$
b110000 E
b1 C
b110 F
#575
0!
0$
#580
1!
1$
b110001 E
b1000 >
b1 F
b1000 1
13
1)
b1000 '
#585
0!
0$
#590
1!
1$
b10010001100100000000000000000 0
b110010 E
b10 F
b0 1
03
0)
b0 '
b10010001100100000000000000000 +
#595
0!
0$
#600
1!
1$
b110011 E
b10010001100100000000000000000 ?
b11 F
#605
0!
0$
#610
1!
1$
b110100 E
b10 B
b0 @
b1001 7
b100 F
b1001 ,
b0 Q
b0 /
#615
0!
0$
#620
1!
1$
b110101 E
b10000 6
b101 F
b10000 .
#625
0!
0$
#630
1!
1$
b110110 E
b110 F
b10000 1
b1 2
13
14
1*
1)
b1 (
b10000 '
#635
0!
0$
#640
1!
1$
b110111 E
b1001 >
b1 F
b1001 1
b0 2
04
0*
b0 (
b1001 '
#645
0!
0$
#650
1!
1$
b110110010000000000000001 0
b111000 E
b10 F
b0 1
03
0)
b0 '
b110110010000000000000001 +
#655
0!
0$
#660
1!
1$
b111001 E
b110110010000000000000001 ?
b11 F
#665
0!
0$
#670
1!
1$
b111010 E
b1 D
b1 B
b11 A
b11 @
b0 7
b100 F
b0 ,
b10001 Q
b10001 /
#675
0!
0$
#680
1!
1$
b111011 E
b1 6
b101 F
b1 .
b10 Q
b10 /
#685
0!
0$
#690
1!
1$
b111100 E
b10 C
b110 F
#695
0!
0$
#700
1!
1$
b111101 E
b1010 >
b10 9
b1 F
b1010 1
13
1)
b1010 '
#705
0!
0$
#710
1!
1$
b100100000000000000000000000011 0
b111110 E
b10 F
b0 1
03
0)
b0 '
b100100000000000000000000000011 +
#715
0!
0$
#720
1!
1$
b111111 E
b100100000000000000000000000011 ?
b11 F
#725
0!
0$
#730
1!
1$
b1000000 E
b11 D
b0 B
b0 A
b0 @
b10010 7
b100 F
b10010 ,
b1 Q
b1 /
#735
0!
0$
#740
1!
1$
b1000001 E
b0 5
b0 6
b101 F
b0 .
b0 -
#745
0!
0$
#750
1!
1$
b1000010 E
b1 C
b110 F
#755
0!
0$
#760
1!
1$
b1000011 E
b1011 >
b1010 =
b11 >
b1 F
b11 1
13
1)
b11 '
#765
0!
0$
#770
1!
1$
b100100000111000000000000001011 0
b1000100 E
b10 F
b0 1
03
0)
b0 '
b100100000111000000000000001011 +
#775
0!
0$
#780
1!
1$
b1000101 E
b100100000111000000000000001011 ?
b11 F
#785
0!
0$
#790
1!
1$
b1000110 E
b1011 D
b100 B
b11 A
b100 F
#795
0!
0$
#800
1!
1$
b1000111 E
b10 5
b1000 6
b101 F
b1000 .
b10 -
b0 Q
b0 /
#805
0!
0$
#810
1!
1$
b1001000 E
b0 C
b110 F
#815
0!
0$
#820
1!
1$
b1001001 E
b100 >
b1 F
b100 1
13
1)
b100 '
#825
0!
0$
#830
1!
1$
b10001010000100000000000000000 0
b1001010 E
b10 F
b0 1
03
0)
b0 '
b10001010000100000000000000000 +
#835
0!
0$
#840
1!
1$
b1001011 E
b10001010000100000000000000000 ?
b11 F
#845
0!
0$
#850
1!
1$
b1001100 E
b0 D
b10 B
b0 A
b101 @
b1000 7
b100 F
b1000 ,
#855
0!
0$
#860
1!
1$
b1001101 E
b0 5
b10000 6
b101 F
b10000 1
13
1)
b10000 '
b10000 .
b0 -
#865
0!
0$
#870
1!
1$
b1 0
b1001110 E
b110 F
b1 +
#875
0!
0$
#880
1!
1$
b1001111 E
b101 >
b1 ;
b1 F
b101 1
b101 '
#885
0!
0$
#890
1!
1$
b100100010000000000000001 0
b1010000 E
b10 F
b0 1
03
0)
b0 '
b100100010000000000000001 +
#895
0!
0$
#900
1!
1$
b1010001 E
b100100010000000000000001 ?
b11 F
#905
0!
0$
#910
1!
1$
b1010010 E
b1 D
b1 B
b10 A
b10 @
b0 7
b100 F
b0 ,
b10000 Q
b10000 /
#915
0!
0$
#920
1!
1$
b1010011 E
b10000 5
b1 6
b101 F
b1 .
b10000 -
b10001 Q
b10001 /
#925
0!
0$
#930
1!
1$
b1010100 E
b10001 C
b110 F
#935
0!
0$
#940
1!
1$
b1010101 E
b110 >
b10001 8
b1 F
b110 1
13
1)
b110 '
#945
0!
0$
#950
1!
1$
b10001100000100000000000000000 0
b1010110 E
b10 F
b0 1
03
0)
b0 '
b10001100000100000000000000000 +
#955
0!
0$
#960
1!
1$
b1010111 E
b10001100000100000000000000000 ?
b11 F
#965
0!
0$
#970
1!
1$
b1011000 E
b0 D
b10 B
b0 A
b110 @
b1000 7
b100 F
b1000 ,
b0 Q
b0 /
#975
0!
0$
#980
1!
1$
b1011001 E
b0 5
b10001 6
b101 F
b10001 1
13
1)
b10001 '
b10001 .
b0 -
#985
0!
0$
#990
1!
1$
b10 0
b1011010 E
b110 F
b10 +
#995
0!
0$
#1000
1!
1$
b1011011 E
b111 >
b10 <
b1 F
b111 1
b111 '
#1005
0!
0$
#1010
1!
1$
b1101101010000000000000000 0
b1011100 E
b10 F
b0 1
03
0)
b0 '
b1101101010000000000000000 +
#1015
0!
0$
#1020
1!
1$
b1011101 E
b1101101010000000000000000 ?
b11 F
#1025
0!
0$
#1030
1!
1$
b1011110 E
b101 B
b110 A
b0 7
b100 F
b0 ,
b10001 Q
b10001 /
#1035
0!
0$
#1040
1!
1$
b1011111 E
b10 5
b1 6
b101 F
b1 .
b10 -
b11 Q
b11 /
#1045
0!
0$
#1050
1!
1$
b1100000 E
b11 C
b110 F
#1055
0!
0$
#1060
1!
1$
b1100001 E
b1000 >
b11 <
b1 F
b1000 1
13
1)
b1000 '
#1065
0!
0$
#1070
1!
1$
b10010001100100000000000000000 0
b1100010 E
b10 F
b0 1
03
0)
b0 '
b10010001100100000000000000000 +
#1075
0!
0$
#1080
1!
1$
b1100011 E
b10010001100100000000000000000 ?
b11 F
#1085
0!
0$
#1090
1!
1$
b1100100 E
b10 B
b0 @
b1001 7
b100 F
b1001 ,
b0 Q
b0 /
#1095
0!
0$
#1100
1!
1$
b1100101 E
b11 5
b10001 6
b101 F
b10001 .
b11 -
#1105
0!
0$
#1110
1!
1$
b1100110 E
b110 F
b10001 1
b11 2
13
14
1*
1)
b11 (
b10001 '
#1115
0!
0$
#1120
1!
1$
b1100111 E
b1001 >
b1 F
b1001 1
b0 2
04
0*
b0 (
b1001 '
#1125
0!
0$
#1130
1!
1$
b110110010000000000000001 0
b1101000 E
b10 F
b0 1
03
0)
b0 '
b110110010000000000000001 +
#1135
0!
0$
#1140
1!
1$
b1101001 E
b110110010000000000000001 ?
b11 F
#1145
0!
0$
#1150
1!
1$
b1101010 E
b1 D
b1 B
b11 A
b11 @
b0 7
b100 F
b0 ,
b10100 Q
b10100 /
#1155
0!
0$
#1160
1!
1$
b1101011 E
b10 5
b1 6
b101 F
b1 .
b10 -
b11 Q
b11 /
#1165
0!
0$
#1170
1!
1$
b1101100 E
b110 F
#1175
0!
0$
#1180
1!
1$
b1101101 E
b1010 >
b11 9
b1 F
b1010 1
13
1)
b1010 '
#1185
0!
0$
#1190
1!
1$
b100100000000000000000000000011 0
b1101110 E
b10 F
b0 1
03
0)
b0 '
b100100000000000000000000000011 +
#1195
0!
0$
#1200
1!
1$
b1101111 E
b100100000000000000000000000011 ?
b11 F
#1205
0!
0$
#1210
1!
1$
b1110000 E
b11 D
b0 B
b0 A
b0 @
b10010 7
b100 F
b10010 ,
b0 Q
b0 /
#1215
0!
0$
#1220
1!
1$
b1110001 E
b0 5
b0 6
b101 F
b0 .
b0 -
b1 Q
b1 /
#1225
0!
0$
#1230
1!
1$
b1110010 E
b1 C
b110 F
#1235
0!
0$
#1240
1!
1$
b1110011 E
b1011 >
b11 >
b1 F
b11 1
13
1)
b11 '
#1245
0!
0$
#1250
1!
1$
b100100000111000000000000001011 0
b1110100 E
b10 F
b0 1
03
0)
b0 '
b100100000111000000000000001011 +
#1255
0!
0$
#1260
1!
1$
b1110101 E
b100100000111000000000000001011 ?
b11 F
#1265
0!
0$
#1270
1!
1$
b1110110 E
b1011 D
b100 B
b11 A
b100 F
#1275
0!
0$
#1280
1!
1$
b1110111 E
b11 5
b1000 6
b101 F
b1000 .
b11 -
b0 Q
b0 /
#1285
0!
0$
#1290
1!
1$
b1111000 E
b0 C
b110 F
#1295
0!
0$
#1300
1!
1$
b1111001 E
b100 >
b1 F
b100 1
13
1)
b100 '
#1305
0!
0$
#1310
1!
1$
b10001010000100000000000000000 0
b1111010 E
b10 F
b0 1
03
0)
b0 '
b10001010000100000000000000000 +
#1315
0!
0$
#1320
1!
1$
b1111011 E
b10001010000100000000000000000 ?
b11 F
#1325
0!
0$
#1330
1!
1$
b1111100 E
b0 D
b10 B
b0 A
b101 @
b1000 7
b100 F
b1000 ,
#1335
0!
0$
#1340
1!
1$
b1111101 E
b0 5
b10001 6
b101 F
b10001 1
13
1)
b10001 '
b10001 .
b0 -
#1345
0!
0$
#1350
1!
1$
b11 0
b1111110 E
b110 F
b11 +
#1355
0!
0$
#1360
1!
1$
b1111111 E
b101 >
b11 ;
b1 F
b101 1
b101 '
#1365
0!
0$
#1370
1!
1$
b100100010000000000000001 0
b10000000 E
b10 F
b0 1
03
0)
b0 '
b100100010000000000000001 +
#1375
0!
0$
#1380
1!
1$
b10000001 E
b100100010000000000000001 ?
b11 F
#1385
0!
0$
#1390
1!
1$
b10000010 E
b1 D
b1 B
b10 A
b10 @
b0 7
b100 F
b0 ,
b10001 Q
b10001 /
#1395
0!
0$
#1400
1!
1$
b10000011 E
b10001 5
b1 6
b101 F
b1 .
b10001 -
b10010 Q
b10010 /
#1405
0!
0$
#1410
1!
1$
b10000100 E
b10010 C
b110 F
#1415
0!
0$
#1420
1!
1$
b10000101 E
b110 >
b10010 8
b1 F
b110 1
13
1)
b110 '
#1425
0!
0$
#1430
1!
1$
b10001100000100000000000000000 0
b10000110 E
b10 F
b0 1
03
0)
b0 '
b10001100000100000000000000000 +
#1435
0!
0$
#1440
1!
1$
b10000111 E
b10001100000100000000000000000 ?
b11 F
#1445
0!
0$
#1450
1!
1$
b10001000 E
b0 D
b10 B
b0 A
b110 @
b1000 7
b100 F
b1000 ,
b0 Q
b0 /
#1455
0!
0$
#1460
1!
1$
b10001001 E
b0 5
b10010 6
b101 F
b10010 1
13
1)
b10010 '
b10010 .
b0 -
#1465
0!
0$
#1470
1!
1$
b11 0
b10001010 E
b110 F
b11 +
#1475
0!
0$
#1480
1!
1$
b10001011 E
b111 >
b1 F
b111 1
b111 '
#1485
0!
0$
#1490
1!
1$
b1101101010000000000000000 0
b10001100 E
b10 F
b0 1
03
0)
b0 '
b1101101010000000000000000 +
#1495
0!
0$
#1500
1!
1$
b10001101 E
b1101101010000000000000000 ?
b11 F
#1505
0!
0$
#1510
1!
1$
b10001110 E
b101 B
b110 A
b0 7
b100 F
b0 ,
b10010 Q
b10010 /
#1515
0!
0$
#1520
1!
1$
b10001111 E
b11 5
b11 6
b101 F
b11 .
b11 -
b110 Q
b110 /
#1525
0!
0$
#1530
1!
1$
b10010000 E
b110 C
b110 F
#1535
0!
0$
#1540
1!
1$
b10010001 E
b1000 >
b110 <
b1 F
b1000 1
13
1)
b1000 '
#1545
0!
0$
#1550
1!
1$
b10010001100100000000000000000 0
b10010010 E
b10 F
b0 1
03
0)
b0 '
b10010001100100000000000000000 +
#1555
0!
0$
#1560
1!
1$
b10010011 E
b10010001100100000000000000000 ?
b11 F
#1565
0!
0$
#1570
1!
1$
b10010100 E
b10 B
b0 @
b1001 7
b100 F
b1001 ,
b0 Q
b0 /
#1575
0!
0$
#1580
1!
1$
b10010101 E
b110 5
b10010 6
b101 F
b10010 .
b110 -
#1585
0!
0$
#1590
1!
1$
b10010110 E
b110 F
b10010 1
b110 2
13
14
1*
1)
b110 (
b10010 '
#1595
0!
0$
#1600
1!
1$
b10010111 E
b1001 >
b1 F
b1001 1
b0 2
04
0*
b0 (
b1001 '
#1605
0!
0$
#1610
1!
1$
b110110010000000000000001 0
b10011000 E
b10 F
b0 1
03
0)
b0 '
b110110010000000000000001 +
#1615
0!
0$
#1620
1!
1$
b10011001 E
b110110010000000000000001 ?
b11 F
#1625
0!
0$
#1630
1!
1$
b10011010 E
b1 D
b1 B
b11 A
b11 @
b0 7
b100 F
b0 ,
b11000 Q
b11000 /
#1635
0!
0$
#1640
1!
1$
b10011011 E
b11 5
b1 6
b101 F
b1 .
b11 -
b100 Q
b100 /
#1645
0!
0$
#1650
1!
1$
b10011100 E
b100 C
b110 F
#1655
0!
0$
#1660
1!
1$
b10011101 E
b1010 >
b100 9
b1 F
b1010 1
13
1)
b1010 '
#1665
0!
0$
#1670
1!
1$
b100100000000000000000000000011 0
b10011110 E
b10 F
b0 1
03
0)
b0 '
b100100000000000000000000000011 +
#1675
0!
0$
#1680
1!
1$
b10011111 E
b100100000000000000000000000011 ?
b11 F
#1685
0!
0$
#1690
1!
1$
b10100000 E
b11 D
b0 B
b0 A
b0 @
b10010 7
b100 F
b10010 ,
b0 Q
b0 /
#1695
0!
0$
#1700
1!
1$
b10100001 E
b0 5
b0 6
b101 F
b0 .
b0 -
b1 Q
b1 /
#1705
0!
0$
#1710
1!
1$
b10100010 E
b1 C
b110 F
#1715
0!
0$
#1720
1!
1$
b10100011 E
b1011 >
b11 >
b1 F
b11 1
13
1)
b11 '
#1725
0!
0$
#1730
1!
1$
b100100000111000000000000001011 0
b10100100 E
b10 F
b0 1
03
0)
b0 '
b100100000111000000000000001011 +
#1735
0!
0$
#1740
1!
1$
b10100101 E
b100100000111000000000000001011 ?
b11 F
#1745
0!
0$
#1750
1!
1$
b10100110 E
b1011 D
b100 B
b11 A
b100 F
#1755
0!
0$
#1760
1!
1$
b10100111 E
b100 5
b1000 6
b101 F
b1000 .
b100 -
b0 Q
b0 /
#1765
0!
0$
#1770
1!
1$
b10101000 E
b0 C
b110 F
#1775
0!
0$
#1780
1!
1$
b10101001 E
b100 >
b1 F
b100 1
13
1)
b100 '
#1785
0!
0$
#1790
1!
1$
b10001010000100000000000000000 0
b10101010 E
b10 F
b0 1
03
0)
b0 '
b10001010000100000000000000000 +
#1795
0!
0$
#1800
1!
1$
b10101011 E
b10001010000100000000000000000 ?
b11 F
#1805
0!
0$
#1810
1!
1$
b10101100 E
b0 D
b10 B
b0 A
b101 @
b1000 7
b100 F
b1000 ,
#1815
0!
0$
#1820
1!
1$
b10101101 E
b0 5
b10010 6
b101 F
b10010 1
13
1)
b10010 '
b10010 .
b0 -
#1825
0!
0$
#1830
1!
1$
b110 0
b10101110 E
b110 F
b110 +
#1835
0!
0$
#1840
1!
1$
b10101111 E
b101 >
b110 ;
b1 F
b101 1
b101 '
#1845
0!
0$
#1850
1!
1$
b100100010000000000000001 0
b10110000 E
b10 F
b0 1
03
0)
b0 '
b100100010000000000000001 +
#1855
0!
0$
#1860
1!
1$
b10110001 E
b100100010000000000000001 ?
b11 F
#1865
0!
0$
#1870
1!
1$
b10110010 E
b1 D
b1 B
b10 A
b10 @
b0 7
b100 F
b0 ,
b10010 Q
b10010 /
#1875
0!
0$
#1880
1!
1$
b10110011 E
b10010 5
b1 6
b101 F
b1 .
b10010 -
b10011 Q
b10011 /
#1885
0!
0$
#1890
1!
1$
b10110100 E
b10011 C
b110 F
#1895
0!
0$
#1900
1!
1$
b10110101 E
b110 >
b10011 8
b1 F
b110 1
13
1)
b110 '
#1905
0!
0$
#1910
1!
1$
b10001100000100000000000000000 0
b10110110 E
b10 F
b0 1
03
0)
b0 '
b10001100000100000000000000000 +
#1915
0!
0$
#1920
1!
1$
b10110111 E
b10001100000100000000000000000 ?
b11 F
#1925
0!
0$
#1930
1!
1$
b10111000 E
b0 D
b10 B
b0 A
b110 @
b1000 7
b100 F
b1000 ,
b0 Q
b0 /
#1935
0!
0$
#1940
1!
1$
b10111001 E
b0 5
b10011 6
b101 F
b10011 1
13
1)
b10011 '
b10011 .
b0 -
#1945
0!
0$
#1950
1!
1$
b100 0
b10111010 E
b110 F
b100 +
#1955
0!
0$
#1960
1!
1$
b10111011 E
b111 >
b100 <
b1 F
b111 1
b111 '
#1965
0!
0$
#1970
1!
1$
b1101101010000000000000000 0
b10111100 E
b10 F
b0 1
03
0)
b0 '
b1101101010000000000000000 +
#1975
0!
0$
#1980
1!
1$
b10111101 E
b1101101010000000000000000 ?
b11 F
#1985
0!
0$
#1990
1!
1$
b10111110 E
b101 B
b110 A
b0 7
b100 F
b0 ,
b10011 Q
b10011 /
#1995
0!
0$
#2000
1!
1$
b10111111 E
b100 5
b110 6
b101 F
b110 .
b100 -
b1010 Q
b1010 /
#2005
0!
0$
#2010
1!
1$
b11000000 E
b1010 C
b110 F
#2015
0!
0$
#2020
1!
1$
b11000001 E
b1000 >
b1010 <
b1 F
b1000 1
13
1)
b1000 '
#2025
0!
0$
#2030
1!
1$
b10010001100100000000000000000 0
b11000010 E
b10 F
b0 1
03
0)
b0 '
b10010001100100000000000000000 +
#2035
0!
0$
#2040
1!
1$
b11000011 E
b10010001100100000000000000000 ?
b11 F
#2045
0!
0$
#2050
1!
1$
b11000100 E
b10 B
b0 @
b1001 7
b100 F
b1001 ,
b0 Q
b0 /
#2055
0!
0$
#2060
1!
1$
b11000101 E
b1010 5
b10011 6
b101 F
b10011 .
b1010 -
#2065
0!
0$
#2070
1!
1$
b11000110 E
b110 F
b10011 1
b1010 2
13
14
1*
1)
b1010 (
b10011 '
#2075
0!
0$
#2080
1!
1$
b11000111 E
b1001 >
b1 F
b1001 1
b0 2
04
0*
b0 (
b1001 '
#2085
0!
0$
#2090
1!
1$
b110110010000000000000001 0
b11001000 E
b10 F
b0 1
03
0)
b0 '
b110110010000000000000001 +
#2095
0!
0$
#2100
1!
1$
b11001001 E
b110110010000000000000001 ?
b11 F
#2105
0!
0$
#2110
1!
1$
b11001010 E
b1 D
b1 B
b11 A
b11 @
b0 7
b100 F
b0 ,
b11101 Q
b11101 /
#2115
0!
0$
#2120
1!
1$
b11001011 E
b100 5
b1 6
b101 F
b1 .
b100 -
b101 Q
b101 /
#2125
0!
0$
#2130
1!
1$
b11001100 E
b101 C
b110 F
#2135
0!
0$
#2140
1!
1$
b11001101 E
b1010 >
b101 9
b1 F
b1010 1
13
1)
b1010 '
#2145
0!
0$
#2150
1!
1$
b100100000000000000000000000011 0
b11001110 E
b10 F
b0 1
03
0)
b0 '
b100100000000000000000000000011 +
#2155
0!
0$
#2160
1!
1$
b11001111 E
b100100000000000000000000000011 ?
b11 F
#2165
0!
0$
#2170
1!
1$
b11010000 E
b11 D
b0 B
b0 A
b0 @
b10010 7
b100 F
b10010 ,
b0 Q
b0 /
#2175
0!
0$
#2180
1!
1$
b11010001 E
b0 5
b0 6
b101 F
b0 .
b0 -
b1 Q
b1 /
#2185
0!
0$
#2190
1!
1$
b11010010 E
b1 C
b110 F
#2195
0!
0$
#2200
1!
1$
b11010011 E
b1011 >
b11 >
b1 F
b11 1
13
1)
b11 '
#2205
0!
0$
#2210
1!
1$
b100100000111000000000000001011 0
b11010100 E
b10 F
b0 1
03
0)
b0 '
b100100000111000000000000001011 +
#2215
0!
0$
#2220
1!
1$
b11010101 E
b100100000111000000000000001011 ?
b11 F
#2225
0!
0$
#2230
1!
1$
b11010110 E
b1011 D
b100 B
b11 A
b100 F
#2235
0!
0$
#2240
1!
1$
b11010111 E
b101 5
b1000 6
b101 F
b1000 .
b101 -
b0 Q
b0 /
#2245
0!
0$
#2250
1!
1$
b11011000 E
b0 C
b110 F
#2255
0!
0$
#2260
1!
1$
b11011001 E
b100 >
b1 F
b100 1
13
1)
b100 '
#2265
0!
0$
#2270
1!
1$
b10001010000100000000000000000 0
b11011010 E
b10 F
b0 1
03
0)
b0 '
b10001010000100000000000000000 +
#2275
0!
0$
#2280
1!
1$
b11011011 E
b10001010000100000000000000000 ?
b11 F
#2285
0!
0$
#2290
1!
1$
b11011100 E
b0 D
b10 B
b0 A
b101 @
b1000 7
b100 F
b1000 ,
#2295
0!
0$
#2300
1!
1$
b11011101 E
b0 5
b10011 6
b101 F
b10011 1
13
1)
b10011 '
b10011 .
b0 -
#2305
0!
0$
#2310
1!
1$
b1010 0
b11011110 E
b110 F
b1010 +
#2315
0!
0$
#2320
1!
1$
b11011111 E
b101 >
b1010 ;
b1 F
b101 1
b101 '
#2325
0!
0$
#2330
1!
1$
b100100010000000000000001 0
b11100000 E
b10 F
b0 1
03
0)
b0 '
b100100010000000000000001 +
#2335
0!
0$
#2340
1!
1$
b11100001 E
b100100010000000000000001 ?
b11 F
#2345
0!
0$
#2350
1!
1$
b11100010 E
b1 D
b1 B
b10 A
b10 @
b0 7
b100 F
b0 ,
b10011 Q
b10011 /
#2355
0!
0$
#2360
1!
1$
b11100011 E
b10011 5
b1 6
b101 F
b1 .
b10011 -
b10100 Q
b10100 /
#2365
0!
0$
#2370
1!
1$
b11100100 E
b10100 C
b110 F
#2375
0!
0$
#2380
1!
1$
b11100101 E
b110 >
b10100 8
b1 F
b110 1
13
1)
b110 '
#2385
0!
0$
#2390
1!
1$
b10001100000100000000000000000 0
b11100110 E
b10 F
b0 1
03
0)
b0 '
b10001100000100000000000000000 +
#2395
0!
0$
#2400
1!
1$
b11100111 E
b10001100000100000000000000000 ?
b11 F
#2405
0!
0$
